C:\Users\Ethan\Desktop\Dungeons\UltimateTokens\src\main\java\com\songoda\enchantments\tool\DrunkenEnchantment.java
C:\Users\Ethan\Desktop\Dungeons\UltimateTokens\src\main\java\com\songoda\enchantments\tool\MeltingEnchantment.java
C:\Users\Ethan\Desktop\Dungeons\UltimateTokens\src\main\java\com\songoda\handlers\ItemEnchantmentHandler.java
C:\Users\Ethan\Desktop\Dungeons\UltimateTokens\src\main\java\com\songoda\listeners\InventoryListeners.java
C:\Users\Ethan\Desktop\Dungeons\UltimateTokens\src\main\java\com\songoda\dust\Dust.java
C:\Users\Ethan\Desktop\Dungeons\UltimateTokens\src\main\java\com\songoda\handlers\CommandHandler.java
C:\Users\Ethan\Desktop\Dungeons\UltimateTokens\src\main\java\com\songoda\utils\Methods.java
C:\Users\Ethan\Desktop\Dungeons\UltimateTokens\src\main\java\com\songoda\utils\RomanNumber.java
C:\Users\Ethan\Desktop\Dungeons\UltimateTokens\src\main\java\com\songoda\enchantments\Enchantment.java
C:\Users\Ethan\Desktop\Dungeons\UltimateTokens\src\main\java\com\songoda\handlers\EnchantmentRegistry.java
C:\Users\Ethan\Desktop\Dungeons\UltimateTokens\src\main\java\com\songoda\EpicEnchants.java
C:\Users\Ethan\Desktop\Dungeons\UltimateTokens\src\main\java\com\songoda\api\ItemType.java
